[
  { "ostream": { "type": "OutputStream" }},
  { "printer": {
    "type": "JsonMapper",         // Mapping values to JSON format
    "regex":  "^(?!.*.ostream.stdout$).*"}  // Prevent the Json Mapper from catching output stream.
  },
  { "connect": { "from": [ "printer", "out" ], "to": [ "ostream", "stdout" ]}}
]